\relax 
\@writefile{toc}{\contentsline {section}{\numberline {3}Compiling MERRILL}{11}}
\newlabel{sec:Compiling}{{3}{11}}
\@writefile{toc}{\contentsline {subsection}{\numberline {3.1}Windows}{11}}
\@writefile{toc}{\contentsline {subsubsection}{\numberline {3.1.1}Requirements}{11}}
\@writefile{toc}{\contentsline {subsubsection}{\numberline {3.1.2}Compile commands}{11}}
\@writefile{toc}{\contentsline {subsection}{\numberline {3.2}OS X}{11}}
\@writefile{toc}{\contentsline {subsubsection}{\numberline {3.2.1}Requirements}{11}}
\@writefile{toc}{\contentsline {subsubsection}{\numberline {3.2.2}Compile commands}{11}}
\@writefile{toc}{\contentsline {subsection}{\numberline {3.3}Linux}{11}}
\@writefile{toc}{\contentsline {subsubsection}{\numberline {3.3.1}Requirements}{11}}
\@writefile{toc}{\contentsline {subsubsection}{\numberline {3.3.2}Compile commands}{11}}
\@setckpt{Compiling}{
\setcounter{page}{12}
\setcounter{equation}{0}
\setcounter{enumi}{0}
\setcounter{enumii}{0}
\setcounter{enumiii}{0}
\setcounter{enumiv}{0}
\setcounter{footnote}{0}
\setcounter{mpfootnote}{0}
\setcounter{part}{0}
\setcounter{section}{3}
\setcounter{subsection}{3}
\setcounter{subsubsection}{2}
\setcounter{paragraph}{0}
\setcounter{subparagraph}{0}
\setcounter{figure}{0}
\setcounter{table}{0}
\setcounter{NAT@ctr}{0}
\setcounter{float@type}{4}
\setcounter{parentequation}{0}
}
