\relax 
\@writefile{toc}{\contentsline {section}{\numberline {1}Important Considerations}{2}}
\newlabel{sec:Considerations}{{1}{2}}
\@writefile{toc}{\contentsline {subsection}{\numberline {1.1}Energy considerations}{2}}
\@writefile{toc}{\contentsline {subsection}{\numberline {1.2}Meshes}{2}}
\@writefile{toc}{\contentsline {subsection}{\numberline {1.3}Fluctuation field}{3}}
\@setckpt{Considerations}{
\setcounter{page}{4}
\setcounter{equation}{0}
\setcounter{enumi}{0}
\setcounter{enumii}{0}
\setcounter{enumiii}{0}
\setcounter{enumiv}{0}
\setcounter{footnote}{0}
\setcounter{mpfootnote}{0}
\setcounter{part}{0}
\setcounter{section}{1}
\setcounter{subsection}{3}
\setcounter{subsubsection}{0}
\setcounter{paragraph}{0}
\setcounter{subparagraph}{0}
\setcounter{figure}{0}
\setcounter{table}{0}
\setcounter{NAT@ctr}{0}
\setcounter{float@type}{4}
\setcounter{parentequation}{0}
}
