\relax 
\@writefile{toc}{\contentsline {section}{\numberline {2}Script Commands}{4}}
\newlabel{sec:Scripts}{{2}{4}}
\@writefile{toc}{\contentsline {subsection}{\numberline {2.1}Introduction}{4}}
\@writefile{toc}{\contentsline {subsection}{\numberline {2.2}Commands}{4}}
\@setckpt{Scripting}{
\setcounter{page}{11}
\setcounter{equation}{0}
\setcounter{enumi}{0}
\setcounter{enumii}{0}
\setcounter{enumiii}{0}
\setcounter{enumiv}{0}
\setcounter{footnote}{0}
\setcounter{mpfootnote}{0}
\setcounter{part}{0}
\setcounter{section}{2}
\setcounter{subsection}{2}
\setcounter{subsubsection}{0}
\setcounter{paragraph}{0}
\setcounter{subparagraph}{0}
\setcounter{figure}{0}
\setcounter{table}{0}
\setcounter{NAT@ctr}{0}
\setcounter{float@type}{4}
\setcounter{parentequation}{0}
}
